{
  "qualification1": {
    "name": "Квалификация 1",
    "players": [
      {
        "name": "Игрок 1",
        "bot": "BotAggressive"
      },
      {
        "name": "Игрок 2",
        "bot": "BotAggressive"
      },
      {
        "name": "Игрок 3",
        "bot": "BotAggressive"
      },
      {
        "name": "Игрок 4",
        "bot": "BotAggressive"
      }
    ]
  },
  "qualification2": {
    "name": "Квалификация 2",
    "players": [
      {
        "name": "Игрок 5",
        "bot": "BotAggressive"
      },
      {
        "name": "Игрок 6",
        "bot": "BotAggressive"
      },
      {
        "name": "Игрок 7",
        "bot": "BotAggressive"
      },
      {
        "name": "Игрок 8",
        "bot": "BotAggressive"
      }
    ]
  }
}